{
  "content": [
    {
      "id": 108,
      "comment": "sample comment.",
      "paperId": null,
      "cognitivePaperId": 2108376819,
      "createdBy": {
        "id": 52,
        "email": "taeheon@pluto.network",
        "emailVerified": true,
        "name": "asdf",
        "profileImage": null,
        "affiliation": "asdf",
        "major": null,
        "reputation": 0,
        "articleCount": 0,
        "reviewCount": 0,
        "commentCount": 0,
        "oauth": null
      },
      "createdAt": "2018-03-06T02:14:08.356"
    },
    {
      "id": 107,
      "comment": "sample comment.",
      "paperId": null,
      "cognitivePaperId": 2108376819,
      "createdBy": {
        "id": 52,
        "email": "taeheon@pluto.network",
        "emailVerified": true,
        "name": "asdf",
        "profileImage": null,
        "affiliation": "asdf",
        "major": null,
        "reputation": 0,
        "articleCount": 0,
        "reviewCount": 0,
        "commentCount": 0,
        "oauth": null
      },
      "createdAt": "2018-03-06T02:14:07.838"
    },
    {
      "id": 106,
      "comment": "sample comment.",
      "paperId": null,
      "cognitivePaperId": 2108376819,
      "createdBy": {
        "id": 52,
        "email": "taeheon@pluto.network",
        "emailVerified": true,
        "name": "asdf",
        "profileImage": null,
        "affiliation": "asdf",
        "major": null,
        "reputation": 0,
        "articleCount": 0,
        "reviewCount": 0,
        "commentCount": 0,
        "oauth": null
      },
      "createdAt": "2018-03-06T02:14:07.356"
    },
    {
      "id": 105,
      "comment": "sample comment.",
      "paperId": null,
      "cognitivePaperId": 2108376819,
      "createdBy": {
        "id": 52,
        "email": "taeheon@pluto.network",
        "emailVerified": true,
        "name": "asdf",
        "profileImage": null,
        "affiliation": "asdf",
        "major": null,
        "reputation": 0,
        "articleCount": 0,
        "reviewCount": 0,
        "commentCount": 0,
        "oauth": null
      },
      "createdAt": "2018-03-06T02:14:06.814"
    },
    {
      "id": 104,
      "comment": "sample comment.",
      "paperId": null,
      "cognitivePaperId": 2108376819,
      "createdBy": {
        "id": 52,
        "email": "taeheon@pluto.network",
        "emailVerified": true,
        "name": "asdf",
        "profileImage": null,
        "affiliation": "asdf",
        "major": null,
        "reputation": 0,
        "articleCount": 0,
        "reviewCount": 0,
        "commentCount": 0,
        "oauth": null
      },
      "createdAt": "2018-03-06T02:14:06.274"
    },
    {
      "id": 103,
      "comment": "sample comment.",
      "paperId": null,
      "cognitivePaperId": 2108376819,
      "createdBy": {
        "id": 52,
        "email": "taeheon@pluto.network",
        "emailVerified": true,
        "name": "asdf",
        "profileImage": null,
        "affiliation": "asdf",
        "major": null,
        "reputation": 0,
        "articleCount": 0,
        "reviewCount": 0,
        "commentCount": 0,
        "oauth": null
      },
      "createdAt": "2018-03-06T02:14:05.758"
    }
  ],
  "totalElements": 22,
  "last": false,
  "totalPages": 4,
  "sort": null,
  "first": true,
  "numberOfElements": 6,
  "size": 6,
  "number": 0
}
